{
    "invitados": [{ 
        "id": 1,
        "nombre": "Jessica Magaly Tamez García",
        "confirmo": 0,
        "fecha_confirmo": "",
        "contrasenia": "lB4uE",
        "acompaniante": 1,
        "ire_solo": 0,
        "asistira": 0,
        "no_asistira": 0,
        "llego_salon": 0,
        "mesa": 1,
        "asiento": 1,
        "notaVoz": "brillas"
    }, {
        "id": 3,
        "nombre": "David Ramirez Tamez",
        "confirmo": 0,
        "fecha_confirmo": "",
        "contrasenia": "2u0u7",
        "acompaniante": 0,
        "ire_solo": 0,
        "asistira": 0,
        "no_asistira": 0,
        "llego_salon": 0,
        "mesa": 1,
        "asiento": 1,
        "notaVoz": "cover"
    }, {
        "id": 4,
        "nombre": "Arely Lizbeth Alfaro",
        "confirmo": 0,
        "fecha_confirmo": "",
        "contrasenia": "WOotB",
        "acompaniante": 0,
        "ire_solo": 0,
        "asistira": 0,
        "no_asistira": 0,
        "llego_salon": 0,
        "mesa": 1,
        "asiento": 1,
        "notaVoz": "emproblemado"
    }, {
        "id": 5,
        "nombre": "Alejandro Perez Tamez",
        "confirmo": 0,
        "fecha_confirmo": "",
        "contrasenia": "XRPSW",
        "acompaniante": 1,
        "ire_solo": 0,
        "asistira": 0,
        "no_asistira": 0,
        "llego_salon": 0,
        "mesa": 1,
        "asiento": 1,
        "notaVoz": "@/assets/notas_voz/emproblemado.mp3"
    }, {
        "id": 7,
        "nombre": "Gabriela Perez Tamez",
        "confirmo": 0,
        "fecha_confirmo": "",
        "contrasenia": "c93Mc",
        "acompaniante": 1,
        "ire_solo": 0,
        "asistira": 0,
        "no_asistira": 0,
        "llego_salon": 0,
        "mesa": 1,
        "asiento": 1,
        "notaVoz": "@/assets/notas_voz/emproblemado.mp3"
    }, {
        "id": 9,
        "nombre": "Jennifer Ramirez Tamez",
        "confirmo": 0,
        "fecha_confirmo": "",
        "contrasenia": "nV6vV",
        "acompaniante": 1,
        "ire_solo": 0,
        "asistira": 0,
        "no_asistira": 0,
        "llego_salon": 0,
        "mesa": 1,
        "asiento": 1,
        "notaVoz": "@/assets/notas_voz/emproblemado.mp3"
    }, {
        "id": 11,
        "nombre": "Sofia Sarahi Afanador Flores",
        "confirmo": 0,
        "fecha_confirmo": "",
        "contrasenia": "aBktv",
        "acompaniante": 0,
        "ire_solo": 0,
        "asistira": 0,
        "no_asistira": 0,
        "llego_salon": 0,
        "mesa": 1,
        "asiento": 1,
        "notaVoz": "@/assets/notas_voz/emproblemado.mp3"
    }, {
        "id": 12,
        "nombre": "Marco Antonio Afanador Flores",
        "confirmo": 0,
        "fecha_confirmo": "",
        "contrasenia": "CeMaL",
        "acompaniante": 0,
        "ire_solo": 0,
        "asistira": 0,
        "no_asistira": 0,
        "llego_salon": 0,
        "mesa": 1,
        "asiento": 1,
        "notaVoz": "@/assets/notas_voz/emproblemado.mp3"
    }, {
        "id": 13,
        "nombre": "Angel Roberto Rodriguez Flores",
        "confirmo": 0,
        "fecha_confirmo": "",
        "contrasenia": "ZW4gN",
        "acompaniante": 1,
        "ire_solo": 0,
        "asistira": 0,
        "no_asistira": 0,
        "llego_salon": 0,
        "mesa": 1,
        "asiento": 1,
        "notaVoz": "@/assets/notas_voz/emproblemado.mp3"
    }, {
        "id": 15,
        "nombre": "Santiago Alexander Rodriguez Flores",
        "confirmo": 0,
        "fecha_confirmo": "",
        "contrasenia": "ZHW2T",
        "acompaniante": 0,
        "ire_solo": 0,
        "asistira": 0,
        "no_asistira": 0,
        "llego_salon": 0,
        "mesa": 1,
        "asiento": 1,
        "notaVoz": "@/assets/notas_voz/emproblemado.mp3"
    }, {
        "id": 16,
        "nombre": "Samuel Alejandro Sias Quiroz",
        "confirmo": 0,
        "fecha_confirmo": "",
        "contrasenia": "867at",
        "acompaniante": 1,
        "ire_solo": 0,
        "asistira": 0,
        "no_asistira": 0,
        "llego_salon": 0,
        "mesa": 1,
        "asiento": 1,
        "notaVoz": "@/assets/notas_voz/emproblemado.mp3"
    }, {
        "id": 17,
        "nombre": "Diego Armando Guerra Franco",
        "confirmo": 0,
        "fecha_confirmo": "",
        "contrasenia": "jUVFK",
        "acompaniante": 1,
        "ire_solo": 0,
        "asistira": 0,
        "no_asistira": 0,
        "llego_salon": 0,
        "mesa": 1,
        "asiento": 1,
        "notaVoz": "@/assets/notas_voz/emproblemado.mp3"
    }, {
        "id": 19,
        "nombre": "Myrna Leonela Díaz Flores",
        "confirmo": 0,
        "fecha_confirmo": "",
        "contrasenia": "JBky4",
        "acompaniante": 1,
        "ire_solo": 0,
        "asistira": 0,
        "no_asistira": 0,
        "llego_salon": 0,
        "mesa": 1,
        "asiento": 1,
        "notaVoz": "@/assets/notas_voz/emproblemado.mp3"
    }, {    
        "id": 21,
        "nombre": "Mireya Abigail Guerrero Medina",
        "confirmo": 0,
        "fecha_confirmo": "",
        "contrasenia": "2KqTe",
        "acompaniante": 1,
        "ire_solo": 0,
        "asistira": 0,
        "no_asistira": 0,
        "llego_salon": 0,
        "mesa": 1,
        "asiento": 1,
        "notaVoz": "@/assets/notas_voz/emproblemado.mp3"
    }, {
        "id": 23,
        "nombre": "Karina Guadalupe Coronado Ramirez",
        "confirmo": 0,
        "fecha_confirmo": "",
        "contrasenia": "onac8",
        "acompaniante": 1,
        "ire_solo": 0,
        "asistira": 0,
        "no_asistira": 0,
        "llego_salon": 0,
        "mesa": 1,
        "asiento": 1,
        "notaVoz": "@/assets/notas_voz/emproblemado.mp3"
    }, {
        "id": 25,
        "nombre": "Nayeli Lizeth Rios Jimenes ",
        "confirmo": 0,
        "fecha_confirmo": "",
        "contrasenia": "9QLXX",
        "acompaniante": 1,
        "ire_solo": 0,
        "asistira": 0,
        "no_asistira": 0,
        "llego_salon": 0,
        "mesa": 1,
        "asiento": 1,
        "notaVoz": "@/assets/notas_voz/emproblemado.mp3"
    }, {
        "id": 27,
        "nombre": "Luis Rosendo Uresti Castillo",
        "confirmo": 0,
        "fecha_confirmo": "",
        "contrasenia": "FT3C6",
        "acompaniante": 0,
        "ire_solo": 0,
        "asistira": 0,
        "no_asistira": 0,
        "llego_salon": 0,
        "mesa": 1,
        "asiento": 1,
        "notaVoz": "@/assets/notas_voz/emproblemado.mp3"
    }, {
        "id": 28,
        "nombre": "Jahir Everardo Rodriguez Sanchez",
        "confirmo": 0,
        "fecha_confirmo": "",
        "contrasenia": "eFckT",
        "acompaniante": 1,
        "ire_solo": 0,
        "asistira": 0,
        "no_asistira": 0,
        "llego_salon": 0,
        "mesa": 1,
        "asiento": 1,
        "notaVoz": "@/assets/notas_voz/emproblemado.mp3"
    }, {
        "id": 30,
        "nombre": "Arnolodo Diaz Medina",
        "confirmo": 0,
        "fecha_confirmo": "",
        "contrasenia": "t9XEl",
        "acompaniante": 1,
        "ire_solo": 0,
        "asistira": 0,
        "no_asistira": 0,
        "llego_salon": 0,
        "mesa": 1,
        "asiento": 1,
        "notaVoz": "@/assets/notas_voz/emproblemado.mp3"
    }, {
        "id": 32,
        "nombre": "Jose Miguel Noriega Lerma",
        "confirmo": 0,
        "fecha_confirmo": "",
        "contrasenia": "6ZZhF",
        "acompaniante": 1,
        "ire_solo": 0,
        "asistira": 0,
        "no_asistira": 0,
        "llego_salon": 0,
        "mesa": 1,
        "asiento": 1,
        "notaVoz": "@/assets/notas_voz/emproblemado.mp3"
    }, {
        "id": 34,
        "nombre": "Miriam Arlet Ortiz García",
        "confirmo": 0,
        "fecha_confirmo": "",
        "contrasenia": "DWRQB",
        "acompaniante": 0,
        "ire_solo": 0,
        "asistira": 0,
        "no_asistira": 0,
        "llego_salon": 0,
        "mesa": 1,
        "asiento": 1,
        "notaVoz": "@/assets/notas_voz/emproblemado.mp3"
    }, {
        "id": 35,
        "nombre": "Angel Manuel Uresti Castillo",
        "confirmo": 0,
        "fecha_confirmo": "",
        "contrasenia": "jZOjv",
        "acompaniante": 0,
        "ire_solo": 0,
        "asistira": 0,
        "no_asistira": 0,
        "llego_salon": 0,
        "mesa": 1,
        "asiento": 1,
        "notaVoz": "@/assets/notas_voz/emproblemado.mp3"
    }, {
        "id": 36,
        "nombre": "Luis Daniel Marquez Ramos",
        "confirmo": 0,
        "fecha_confirmo": "",
        "contrasenia": "STm6h",
        "acompaniante": 1,
        "ire_solo": 0,
        "asistira": 0,
        "no_asistira": 0,
        "llego_salon": 0,
        "mesa": 1,
        "asiento": 1,
        "notaVoz": "@/assets/notas_voz/emproblemado.mp3"
    }, {
        "id": 38,
        "nombre": "Angel Antonio Escajeda Martinez",
        "confirmo": 0,
        "fecha_confirmo": "",
        "contrasenia": "mQ2t8",
        "acompaniante": 1,
        "ire_solo": 0,
        "asistira": 0,
        "no_asistira": 0,
        "llego_salon": 0,
        "mesa": 1,
        "asiento": 1,
        "notaVoz": "@/assets/notas_voz/emproblemado.mp3"
    }, {
        "id": 40,
        "nombre": "Ramon Eduardo Javalera Martínez",
        "confirmo": 0,
        "fecha_confirmo": "",
        "contrasenia": "9gL8p",
        "acompaniante": 1,
        "ire_solo": 0,
        "asistira": 0,
        "no_asistira": 0,
        "llego_salon": 0,
        "mesa": 1,
        "asiento": 1,
        "notaVoz": "@/assets/notas_voz/emproblemado.mp3"
    }, {
        "id": 42,
        "nombre": "Eduardo Daniel Hernandez Zavala",
        "confirmo": 0,
        "fecha_confirmo": "",
        "contrasenia": "6w0kL",
        "acompaniante": 1,
        "ire_solo": 0,
        "asistira": 0,
        "no_asistira": 0,
        "llego_salon": 0,
        "mesa": 1,
        "asiento": 1,
        "notaVoz": "@/assets/notas_voz/emproblemado.mp3"
    }, {
        "id": 44,
        "nombre": "Hector Miguel Guajardo Hernández",
        "confirmo": 0,
        "fecha_confirmo": "",
        "contrasenia": "GWcj6",
        "acompaniante": 1,
        "ire_solo": 0,
        "asistira": 0,
        "no_asistira": 0,
        "llego_salon": 0,
        "mesa": 1,
        "asiento": 1,
        "notaVoz": "@/assets/notas_voz/emproblemado.mp3"
    }, {
        "id": 46,
        "nombre": "Ana Berenice Rodriguez Rodriguez",
        "confirmo": 0,
        "fecha_confirmo": "",
        "contrasenia": "4tegL",
        "acompaniante": 1,
        "ire_solo": 0,
        "asistira": 0,
        "no_asistira": 0,
        "llego_salon": 0,
        "mesa": 1,
        "asiento": 1,
        "notaVoz": "@/assets/notas_voz/emproblemado.mp3"
    }, {
        "id": 48,
        "nombre": "Anira Juliana Guardado Flores",
        "confirmo": 0,
        "fecha_confirmo": "",
        "contrasenia": "wtSXO",
        "acompaniante": 1,
        "ire_solo": 0,
        "asistira": 0,
        "no_asistira": 0,
        "llego_salon": 0,
        "mesa": 1,
        "asiento": 1,
        "notaVoz": "@/assets/notas_voz/emproblemado.mp3"
    }, {
        "id": 50,
        "nombre": "Scarleth Yessenia Gaytan Salas",
        "confirmo": 0,
        "fecha_confirmo": "",
        "contrasenia": "z3Roi",
        "acompaniante": 1,
        "ire_solo": 0,
        "asistira": 0,
        "no_asistira": 0,
        "llego_salon": 0,
        "mesa": 1,
        "asiento": 1,
        "notaVoz": "@/assets/notas_voz/emproblemado.mp3"
    }, {
        "id": 52,
        "nombre": "Marco Antonio Hernandez Moreno",
        "confirmo": 0,
        "fecha_confirmo": "",
        "contrasenia": "1dVPW",
        "acompaniante": 0,
        "ire_solo": 0,
        "asistira": 0,
        "no_asistira": 0,
        "llego_salon": 0,
        "mesa": 1,
        "asiento": 1,
        "notaVoz": "@/assets/notas_voz/emproblemado.mp3"
    }, {
        "id": 53,
        "nombre": "Paulina Elizabeth Olivares Sanchez",
        "confirmo": 0,
        "fecha_confirmo": "",
        "contrasenia": "qmMsI",
        "acompaniante": 0,
        "ire_solo": 0,
        "asistira": 0,
        "no_asistira": 0,
        "llego_salon": 0,
        "mesa": 1,
        "asiento": 1,
        "notaVoz": "@/assets/notas_voz/emproblemado.mp3"
    }, {
        "id": 54,
        "nombre": "Valeria Aracely Lara Rodriguez",
        "confirmo": 0,
        "fecha_confirmo": "",
        "contrasenia": "oADzm",
        "acompaniante": 0,
        "ire_solo": 0,
        "asistira": 0,
        "no_asistira": 0,
        "llego_salon": 0,
        "mesa": 1,
        "asiento": 1,
        "notaVoz": "@/assets/notas_voz/emproblemado.mp3"
    }, {
        "id": 55,
        "nombre": "Idalia Magdalena Flores Estrada",
        "confirmo": 0,
        "fecha_confirmo": "",
        "contrasenia": "fN6XG",
        "acompaniante": 0,
        "ire_solo": 0,
        "asistira": 0,
        "no_asistira": 0,
        "llego_salon": 0,
        "mesa": 1,
        "asiento": 1,
        "notaVoz": "@/assets/notas_voz/emproblemado.mp3"
    }, {
        "id": 56,
        "nombre": "Mario Alberto Afanador Dimas",
        "confirmo": 0,
        "fecha_confirmo": "",
        "contrasenia": "1Jsaj",
        "acompaniante": 0,
        "ire_solo": 0,
        "asistira": 0,
        "no_asistira": 0,
        "llego_salon": 0,
        "mesa": 1,
        "asiento": 1,
        "notaVoz": "@/assets/notas_voz/emproblemado.mp3"
    }, {
        "id": 57,
        "nombre": "Maria de Jesus Flores Estrada",
        "confirmo": 0,
        "fecha_confirmo": "",
        "contrasenia": "19GNi",
        "acompaniante": 0,
        "ire_solo": 0,
        "asistira": 0,
        "no_asistira": 0,
        "llego_salon": 0,
        "mesa": 1,
        "asiento": 1,
        "notaVoz": "@/assets/notas_voz/emproblemado.mp3"
    }, {
        "id": 58,
        "nombre": "Angel Rodriguez Castro",
        "confirmo": 0,
        "fecha_confirmo": "",
        "contrasenia": "r7a1X",
        "acompaniante": 0,
        "ire_solo": 0,
        "asistira": 0,
        "no_asistira": 0,
        "llego_salon": 0,
        "mesa": 1,
        "asiento": 1,
        "notaVoz": "@/assets/notas_voz/emproblemado.mp3"
    }, {
        "id": 59,
        "nombre": "Luis Flores Olivares",
        "confirmo": 0,
        "fecha_confirmo": "",
        "contrasenia": "RnVzq",
        "acompaniante": 0,
        "ire_solo": 0,
        "asistira": 0,
        "no_asistira": 0,
        "llego_salon": 0,
        "mesa": 1,
        "asiento": 1,
        "notaVoz": "@/assets/notas_voz/emproblemado.mp3"
    }, {
        "id": 60,
        "nombre": "Horacio Guerra Dimas",
        "confirmo": 0,
        "fecha_confirmo": "",
        "contrasenia": "TkZD1",
        "acompaniante": 1,
        "ire_solo": 0,
        "asistira": 0,
        "no_asistira": 0,
        "llego_salon": 0,
        "mesa": 1,
        "asiento": 1,
        "notaVoz": "@/assets/notas_voz/emproblemado.mp3"
    }, {
        "id": 63,
        "nombre": "Candelario Tamez Gutierrez",
        "confirmo": 0,
        "fecha_confirmo": "",
        "contrasenia": "rO69M",
        "acompaniante": 0,
        "ire_solo": 0,
        "asistira": 0,
        "no_asistira": 0,
        "llego_salon": 0,
        "mesa": 1,
        "asiento": 1,
        "notaVoz": "@/assets/notas_voz/emproblemado.mp3"
    }, {
        "id": 64,
        "nombre": "Angelica Ma García Zuñiga",
        "confirmo": 0,
        "fecha_confirmo": "",
        "contrasenia": "NBnVu",
        "acompaniante": 0,
        "ire_solo": 0,
        "asistira": 0,
        "no_asistira": 0,
        "llego_salon": 0,
        "mesa": 1,
        "asiento": 1,
        "notaVoz": "@/assets/notas_voz/emproblemado.mp3"
    }, {
        "id": 65,
        "nombre": "Blanca Tamez Gutierrez",
        "confirmo": 0,
        "fecha_confirmo": "",
        "contrasenia": "ZNpp3",
        "acompaniante": 0,
        "ire_solo": 0,
        "asistira": 0,
        "no_asistira": 0,
        "llego_salon": 0,
        "mesa": 1,
        "asiento": 1,
        "notaVoz": "@/assets/notas_voz/emproblemado.mp3"
    }, {
        "id": 66,
        "nombre": "REYES PEREZ",
        "confirmo": 0,
        "fecha_confirmo": "",
        "contrasenia": "YoHpo",
        "acompaniante": 0,
        "ire_solo": 0,
        "asistira": 0,
        "no_asistira": 0,
        "llego_salon": 0,
        "mesa": 1,
        "asiento": 1,
        "notaVoz": "@/assets/notas_voz/emproblemado.mp3"
    }, {
        "id": 67,
        "nombre": "Margarita Tamez Gutierrez",
        "confirmo": 0,
        "fecha_confirmo": "",
        "contrasenia": "3ai5b",
        "acompaniante": 1,
        "ire_solo": 0,
        "asistira": 0,
        "no_asistira": 0,
        "llego_salon": 0,
        "mesa": 1,
        "asiento": 1,
        "notaVoz": "@/assets/notas_voz/emproblemado.mp3"
    }, {
        "id": 69,
        "nombre": "Juana Julieta Tamez Gutierrez",
        "confirmo": 0,
        "fecha_confirmo": "",
        "contrasenia": "wcd9T",
        "acompaniante": 0,
        "ire_solo": 0,
        "asistira": 0,
        "no_asistira": 0,
        "llego_salon": 0,
        "mesa": 1,
        "asiento": 1,
        "notaVoz": "@/assets/notas_voz/emproblemado.mp3"
    }, {
        "id": 70,
        "nombre": "Juan Francisco Ramirez Duarte",
        "confirmo": 0,
        "fecha_confirmo": "",
        "contrasenia": "c35y6",
        "acompaniante": 0,
        "ire_solo": 0,
        "asistira": 0,
        "no_asistira": 0,
        "llego_salon": 0,
        "mesa": 1,
        "asiento": 1,
        "notaVoz": "@/assets/notas_voz/emproblemado.mp3"
    }, {
        "id": 71,
        "nombre": "Nicolas García Zuñiga",
        "confirmo": 0,
        "fecha_confirmo": "",
        "contrasenia": "pK4sV",
        "acompaniante": 0,
        "ire_solo": 0,
        "asistira": 0,
        "no_asistira": 0,
        "llego_salon": 0,
        "mesa": 1,
        "asiento": 1,
        "notaVoz": "@/assets/notas_voz/emproblemado.mp3"
    }, {
        "id": 72,
        "nombre": "Priscila Olivares Sanchez",
        "confirmo": 0,
        "fecha_confirmo": "",
        "contrasenia": "StQwO",
        "acompaniante": 1,
        "ire_solo": 0,
        "asistira": 0,
        "no_asistira": 0,
        "llego_salon": 0,
        "mesa": 1,
        "asiento": 1,
        "notaVoz": "@/assets/notas_voz/emproblemado.mp3"
    }, {
        "id": 74,
        "nombre": "TIA PATY",
        "confirmo": 0,
        "fecha_confirmo": "",
        "contrasenia": "mQLSJ",
        "acompaniante": 0,
        "ire_solo": 0,
        "asistira": 0,
        "no_asistira": 0,
        "llego_salon": 0,
        "mesa": 1,
        "asiento": 1,
        "notaVoz": "@/assets/notas_voz/emproblemado.mp3"
    }, {
        "id": 75,
        "nombre": "TIA CRISTY",
        "confirmo": 0,
        "fecha_confirmo": "",
        "contrasenia": "rxzYL",
        "acompaniante": 0,
        "ire_solo": 0,
        "asistira": 0,
        "no_asistira": 0,
        "llego_salon": 0,
        "mesa": 1,
        "asiento": 1,
        "notaVoz": "@/assets/notas_voz/emproblemado.mp3"
    }]
}